module gitlab.com/jcobhams/echovalidate

go 1.14

require (
	github.com/stretchr/objx v0.3.0 // indirect
	github.com/stretchr/testify v1.6.1
	gopkg.in/yaml.v3 v3.0.0-20200615113413-eeeca48fe776 // indirect
)
